Working with spatial data available through read.abares • read.abares
…
## A list of {tidync} objects
tdnc <- get_agfd(cache = TRUE) |>
  read_agfd_tidync()
#> Warning: internal error 1 in R_decompress1 with libdeflate
#> Error: lazy-load database '/Users/283204f/Library/R/arm64/4.4/library/read.abares/R/read.abares.rdb' is corrupt

head(tdnc[[1]])
#> $source
#> # A tibble: 1 × 2
#>   access              source                                                    
#>   <dttm>              <chr>                                                     
#> 1 2025-04-01 14:55:04 /Users/283204f/Library/Caches/org.R-project.R/R/read.abar…
#> 
#> $axis
#> # A tibble: 84 × 3
#>     axis variable       dimension
#>    <int> <chr>              <int>
#>  1     1 lon                    0
#>  2     2 lat                    1
#>  3     3 farmno                 0
#>  4     4 farmno                 1
#>  5     5 R_total_hat_ha         0
#>  6     6 R_total_hat_ha         1
#>  7     7 C_total_hat_ha         0
#>  8     8 C_total_hat_ha         1
#>  9     9 FBP_fci_hat_ha         0
#> 10    10 FBP_fci_hat_ha         1
#> # ℹ 74 more rows
…
#>   grid  ndims variables         nvars
#>   <chr> <int> <list>            <int>
#> 1 D0,D1     2 <tibble [41 × 1]>    41
#> 2 D0        1 <tibble [1 × 1]>      1
#> 3 D1        1 <tibble [1 × 1]>      1
#> 
#> $dimension
#> # A tibble: 2 × 8
#>      id name  length unlim coord_dim active start count
#>   <int> <chr>  <dbl> <lgl> <lgl>     <lgl>  <int> <int>
#> 1     0 lon      886 FALSE TRUE      TRUE       1   886
#> 2     1 lat      691 FALSE TRUE      TRUE       1   691
#> 
#> $variable
#> # A tibble: 43 × 7
#>       id name            type      ndims natts dim_coord active
#>    <int> <chr>           <chr>     <int> <int> <lgl>     <lgl> 
#>  1     0 lon             NC_DOUBLE     1     2 TRUE      FALSE 
#>  2     1 lat             NC_DOUBLE     1     2 TRUE      FALSE 
#>  3     2 farmno          NC_DOUBLE     2     1 FALSE     TRUE  
#>  4     3 R_total_hat_ha  NC_DOUBLE     2     1 FALSE     TRUE  
#>  5     4 C_total_hat_ha  NC_DOUBLE     2     1 FALSE     TRUE  
#>  6     5 FBP_fci_hat_ha  NC_DOUBLE     2     1 FALSE     TRUE  
#>  7     6 FBP_fbp_hat_ha  NC_DOUBLE     2     1 FALSE     TRUE  
#>  8     7 A_wheat_hat_ha  NC_DOUBLE     2     1 FALSE     TRUE  
#>  9     8 H_wheat_dot_hat NC_DOUBLE     2     1 FALSE     TRUE  
#> 10     9 A_barley_hat_ha NC_DOUBLE     2     1 FALSE     TRUE  
#> # ℹ 33 more rows
#> 
#> $attribute
#> # A tibble: 49 × 4
#>       id name       variable       value       
#>    <int> <chr>      <chr>          <named list>
#>  1     0 _FillValue lon            <dbl [1]>   
#>  2     1 units      lon            <chr [1]>   
#>  3     0 _FillValue lat            <dbl [1]>   
#>  4     1 units      lat            <chr [1]>   
#>  5     0 _FillValue farmno         <dbl [1]>   
#>  6     0 _FillValue R_total_hat_ha <dbl [1]>   
#>  7     0 _FillValue C_total_hat_ha <dbl [1]>   
#>  8     0 _FillValue FBP_fci_hat_ha <dbl [1]>   
#>  9     0 _FillValue FBP_fbp_hat_ha <dbl [1]>   
#> 10     0 _FillValue A_wheat_hat_ha <dbl [1]>   
#> # ℹ 39 more rows
…
